{
    "build_key":"Gk8LWn9QQEpa7j9JcjWmMA",
    "kconfig":[
        "allnoconfig"
    ],
    "git_repo":"https://github.com/torvalds/linux.git",
    "git_ref":"master",
    "target_arch":"arm",
    "toolchain":"gcc-8",
    "git_short_log":"c5f86891185c (\"Merge tag 'riscv-for-linux-5.6-rc4' of git://git.kernel.org/pub/scm/linux/kernel/git/riscv/linux\")",
    "git_sha":"c5f86891185c408b2241ba9a82ae8622d8386aff",
    "git_describe":"v5.6-rc3-42-gc5f86891185c",
    "kernel_version":"5.6.0-rc3",
    "kconfig_allconfig":null,
    "download_url":"http://builds.dev.tuxbuild.com/Gk8LWn9QQEpa7j9JcjWmMA/"
}